title,footprint,subtitle,subtitle2,subtitle3,sqrt,width,y
LARGE DOG,1.1,,,,1.048808848,943.93,56.07
MEDIUM SIZED DOG,0.84,CONSUMPTION PER YEAR,"164kg of meat, 95kg or cereals","43.3m2 of land per 1kg of chicken (more for beef and lamb), 13.4m2 of land per 1kg of cereals",0.916515139,824.86,175.14
TOYOTA LAND CRUISER,0.41,"10,000km DRIVEN PER YEAR",55.1 gigajoules (includes energy required to fuel and construct),,0.640312424,576.28,423.72
VOLKSWAGEN GOLF,0.18,,,,0.424264069,381.84,618.16
CAT,0.15,,,,0.387298335,348.57,651.43
HAMSTER,0.014,,,,0.118321596,106.49,893.51